%YAML 1.1
%TAG !u! tag:unity3d.com,2011:
--- !u!74 &7400000
AnimationClip:
  m_ObjectHideFlags: 0
  m_PrefabParentObject: {fileID: 0}
  m_PrefabInternal: {fileID: 0}
  m_Name: retry
  serializedVersion: 6
  m_Legacy: 0
  m_Compressed: 0
  m_UseHighQualityCurve: 1
  m_RotationCurves: []
  m_CompressedRotationCurves: []
  m_EulerCurves: []
  m_PositionCurves: []
  m_ScaleCurves:
  - curve:
      serializedVersion: 2
      m_Curve:
      - time: 0
        value: {x: 0.9755509, y: 0.97555065, z: 0.97555065}
        inSlope: {x: 0.079892635, y: 0.079892755, z: 0.079892755}
        outSlope: {x: 0.079892635, y: 0.079892755, z: 0.079892755}
        tangentMode: 0
      - time: 1
        value: {x: 1.0554435, y: 1.0554434, z: 1.0554434}
        inSlope: {x: 0, y: 0.00000011920929, z: 0.00000011920929}
        outSlope: {x: 0, y: 0.00000011920929, z: 0.00000011920929}
        tangentMode: 0
      - time: 2
        value: {x: 0.9755509, y: 0.9755509, z: 0.9755509}
        inSlope: {x: -0.079892635, y: -0.079892516, z: -0.079892516}
        outSlope: {x: -0.079892635, y: -0.079892516, z: -0.079892516}
        tangentMode: 0
      m_PreInfinity: 2
      m_PostInfinity: 2
      m_RotationOrder: 4
    path: 
  m_FloatCurves:
  - curve:
      serializedVersion: 2
      m_Curve:
      - time: 0
        value: 75.747
        inSlope: -0.16699982
        outSlope: -0.16699982
        tangentMode: 10
      - time: 1
        value: 75.58
        inSlope: -0.16699982
        outSlope: -0.16699982
        tangentMode: 10
      m_PreInfinity: 2
      m_PostInfinity: 2
      m_RotationOrder: 4
    attribute: m_AnchoredPosition.y
    path: 
    classID: 224
    script: {fileID: 0}
  m_PPtrCurves: []
  m_SampleRate: 10
  m_WrapMode: 0
  m_Bounds:
    m_Center: {x: 0, y: 0, z: 0}
    m_Extent: {x: 0, y: 0, z: 0}
  m_ClipBindingConstant:
    genericBindings:
    - path: 0
      attribute: 3
      script: {fileID: 0}
      classID: 4
      customType: 0
      isPPtrCurve: 0
    - path: 0
      attribute: 538195251
      script: {fileID: 0}
      classID: 224
      customType: 0
      isPPtrCurve: 0
    pptrCurveMapping: []
  m_AnimationClipSettings:
    serializedVersion: 2
    m_AdditiveReferencePoseClip: {fileID: 0}
    m_AdditiveReferencePoseTime: 0
    m_StartTime: 0
    m_StopTime: 2
    m_OrientationOffsetY: 0
    m_Level: 0
    m_CycleOffset: 0
    m_HasAdditiveReferencePose: 0
    m_LoopTime: 1
    m_LoopBlend: 0
    m_LoopBlendOrientation: 0
    m_LoopBlendPositionY: 0
    m_LoopBlendPositionXZ: 0
    m_KeepOriginalOrientation: 0
    m_KeepOriginalPositionY: 1
    m_KeepOriginalPositionXZ: 0
    m_HeightFromFeet: 0
    m_Mirror: 0
  m_EditorCurves:
  - curve:
      serializedVersion: 2
      m_Curve:
      - time: 0
        value: 0.9755509
        inSlope: 0.079892635
        outSlope: 0.079892635
        tangentMode: 10
      - time: 1
        value: 1.0554435
        inSlope: 0
        outSlope: 0
        tangentMode: 10
      - time: 2
        value: 0.9755509
        inSlope: -0.079892635
        outSlope: -0.079892635
        tangentMode: 10
      m_PreInfinity: 2
      m_PostInfinity: 2
      m_RotationOrder: 4
    attribute: m_LocalScale.x
    path: 
    classID: 224
    script: {fileID: 0}
  - curve:
      serializedVersion: 2
      m_Curve:
      - time: 0
        value: 0.97555065
        inSlope: 0.079892755
        outSlope: 0.079892755
        tangentMode: 10
      - time: 1
        value: 1.0554434
        inSlope: 0.00000011920929
        outSlope: 0.00000011920929
        tangentMode: 10
      - time: 2
        value: 0.9755509
        inSlope: -0.079892516
        outSlope: -0.079892516
        tangentMode: 10
      m_PreInfinity: 2
      m_PostInfinity: 2
      m_RotationOrder: 4
    attribute: m_LocalScale.y
    path: 
    classID: 224
    script: {fileID: 0}
  - curve:
      serializedVersion: 2
      m_Curve:
      - time: 0
        value: 0.97555065
        inSlope: 0.079892755
        outSlope: 0.079892755
        tangentMode: 10
      - time: 1
        value: 1.0554434
        inSlope: 0.00000011920929
        outSlope: 0.00000011920929
        tangentMode: 10
      - time: 2
        value: 0.9755509
        inSlope: -0.079892516
        outSlope: -0.079892516
        tangentMode: 10
      m_PreInfinity: 2
      m_PostInfinity: 2
      m_RotationOrder: 4
    attribute: m_LocalScale.z
    path: 
    classID: 224
    script: {fileID: 0}
  - curve:
      serializedVersion: 2
      m_Curve:
      - time: 0
        value: 75.747
        inSlope: -0.16699982
        outSlope: -0.16699982
        tangentMode: 10
      - time: 1
        value: 75.58
        inSlope: -0.16699982
        outSlope: -0.16699982
        tangentMode: 10
      m_PreInfinity: 2
      m_PostInfinity: 2
      m_RotationOrder: 4
    attribute: m_AnchoredPosition.y
    path: 
    classID: 224
    script: {fileID: 0}
  m_EulerEditorCurves: []
  m_HasGenericRootTransform: 0
  m_HasMotionFloatCurves: 0
  m_GenerateMotionCurves: 0
  m_Events: []
