%YAML 1.1
%TAG !u! tag:unity3d.com,2011:
--- !u!1 &196194
GameObject:
  m_ObjectHideFlags: 0
  m_PrefabParentObject: {fileID: 0}
  m_PrefabInternal: {fileID: 100100000}
  serializedVersion: 4
  m_Component:
  - 4: {fileID: 496194}
  - 114: {fileID: 11496194}
  m_Layer: 0
  m_Name: NGWORD
  m_TagString: Untagged
  m_Icon: {fileID: 0}
  m_NavMeshLayer: 0
  m_StaticEditorFlags: 0
  m_IsActive: 1
--- !u!4 &496194
Transform:
  m_ObjectHideFlags: 1
  m_PrefabParentObject: {fileID: 0}
  m_PrefabInternal: {fileID: 100100000}
  m_GameObject: {fileID: 196194}
  m_LocalRotation: {x: 0, y: 0, z: 0, w: 1}
  m_LocalPosition: {x: 318.5, y: 826.5, z: 0}
  m_LocalScale: {x: 1, y: 1, z: 1}
  m_Children: []
  m_Father: {fileID: 0}
  m_RootOrder: 0
--- !u!114 &11496194
MonoBehaviour:
  m_ObjectHideFlags: 1
  m_PrefabParentObject: {fileID: 0}
  m_PrefabInternal: {fileID: 100100000}
  m_GameObject: {fileID: 196194}
  m_Enabled: 1
  m_EditorHideFlags: 0
  m_Script: {fileID: 11500000, guid: 943112a0ba919494cbf9a993fb328cf2, type: 3}
  m_Name: 
  m_EditorClassIdentifier: 
  ngword:
  - e38197e381ad
  - e38182e38184e38188e3818d
  - e3819be38184e38188e3818d
  - e381b5e38181e381a3e3818f
  - e38184e381ace38194e3828de38197
  - e38184e38293e381b0e38184
  - e38184e38293e38282e38186
  - e38186e38293e38193
  - e38186e38293e381a1
  - e3818ae38281e38193
  - e3818be3819fe3828f
  - e3818de381a1e3818ce38184
  - e3818fe3828de38293e381bc
  - e38191e381a8e38186
  - e38193e3828de38199
  - e38194e38186e3818be38293
  - e38195e38293e38194e3818fe38198e38293
  - e38197e381aae38198e38293
  - e3819be381a3e3818fe38199
  - e381a1e38283e38293e38193e3828d
  - e381a1e38293e38193
  - e381a1e38293e381a1e38293
  - e381a1e38293e381bc
  - e381a1e38293e381bd
  - e381a4e38293e381bc
  - e381a9e3818be3819f
  - e381a8e38195e381a4
  - e381a9e38282e3828a
  - e381abe38190e3828d
  - e381abe38293e381b4e381abe38293
  - e381b3e381a3e38193
  - e381b2e381abe38293
  - e381b5e38187e38289
  - e381b6e38289e3818f
  - e381bae381abe38199
  - e381bee38293e38193
  - e38281e3818fe38289
  - e38284e3828ae381bee38293
  - e38284e38289e3819be3828d
  - e3828ce38184e381b7
  - e381a9e38186e381a6e38184
  - e3828de3828ae38193e38293
  - e3818ae383bce3818ce3819ae38280
  - e38182e381aae3828b
  - e38197e38287e38198e38287
  - e38197e38283e3819be38184
  - e381b0e3818b
  - e38182e381bb
  - e38192e3828a
  - e38184e38293e381b6
  - e381a6e38193e3818d
  - e3819be38184e38197
  - e38289e38293e38197
  - e38182e3818ae3818be38293
  - e38182e3818fe38281
  - e38182e38195e381a0e381a1
  - e38182e381ace38199
  - e38182e3828fe381b2e38281
  - e38184e38281e3818fe38289
  - e38184e38293e38191e38184
  - e38184e38293e381bd
  - e38188e381a3e381a1
  - e3818ae381a3e381b1e38184
  - e3818be38186e381b1e383bc
  - e3818ce38293e38197e38283
  - e3818de38198e38287e38186e38184
  - e3818de38287e38193e38293
  - e3818de38287e381abe38285e38186
  - e381abe38285e38186e3828ae38293
  - e3818de38293e3819fe381be
  - e3819fe381bee381b6e3818fe3828d
  - e3818fe38199e38193
  - e3818fe3828ae381a8e3828ae38199
  - e3818fe38293e381ab
  - e38193e38293e381a9e383bce38280
  - e38196e383bce38281e38293
  - e38199e3818be381a8e3828d
  - e38199e381bee3819f
  - e3819be381b5e3828c
  - e381aae3818be381a0e38197
  - e381a6e3828ce3818fe38289
  - e381a9e381b3e38285
  - e381b4e38293e38195e3828d
  - e38288e381b0e38184
  - e3828ce3819ae381b3e38182e38293
  - e3818de381a8e38186
--- !u!1001 &100100000
Prefab:
  m_ObjectHideFlags: 1
  serializedVersion: 2
  m_Modification:
    m_TransformParent: {fileID: 0}
    m_Modifications: []
    m_RemovedComponents: []
  m_ParentPrefab: {fileID: 0}
  m_RootGameObject: {fileID: 196194}
  m_IsPrefabParent: 1
